1403636583863555328,0.01991,0.00140,-0.00499,-0.40989,0.58928,0.58449,0.37831,
1403636584063555584,0.01851,-0.00780,-0.05821,-0.40251,0.58617,0.59050,0.38171,
1403636584363555328,0.01122,-0.00100,0.05209,-0.39781,0.58708,0.58212,0.39777,
1403636584563555584,0.01199,0.00453,0.19291,-0.39371,0.58449,0.56887,0.42397,
1403636584663555328,0.01143,0.00641,0.26578,-0.39787,0.58283,0.55386,0.44187,
1403636584763555584,0.00962,0.00610,0.33102,-0.40195,0.57945,0.53901,0.46060,
1403636584963555584,-0.00087,-0.00862,0.40987,-0.41097,0.57764,0.52043,0.47602,
1403636585363555328,0.00691,0.00888,0.29547,-0.37350,0.59731,0.51608,0.48722,
1403636585563555584,0.01594,0.00744,0.19143,-0.36797,0.59817,0.53390,0.47089,
1403636585663555328,0.01690,-0.00781,0.15178,-0.37404,0.59793,0.54611,0.45203,
1403636585863555328,0.01902,-0.03121,0.11543,-0.37593,0.61003,0.56138,0.41400,
1403636586063555584,0.01676,-0.04571,0.11813,-0.35185,0.63377,0.57119,0.38506,
1403636586263555584,0.00790,-0.06129,0.12952,-0.31633,0.66101,0.58061,0.35482,
1403636586463555584,0.00512,-0.08523,0.13453,-0.29667,0.67432,0.59977,0.31235,
1403636587363555328,0.06909,-0.06619,0.14414,-0.30139,0.65881,0.62525,0.29017,
1403636587563555584,0.12266,-0.05554,0.14375,-0.29976,0.66518,0.62124,0.28590,
1403636587763555584,0.19408,-0.04514,0.14706,-0.30477,0.67000,0.61006,0.29333,
1403636587863555328,0.23089,-0.04055,0.14767,-0.30640,0.67246,0.60498,0.29653,
1403636587963555584,0.26472,-0.03573,0.14354,-0.30222,0.67602,0.60411,0.29448,
1403636588063555584,0.29468,-0.03175,0.13729,-0.29372,0.68178,0.60417,0.28963,
1403636588863555328,0.25758,-0.04073,0.12865,-0.30648,0.67330,0.61460,0.27386,
1403636589063555584,0.18058,-0.05530,0.13571,-0.31528,0.66503,0.61984,0.27227,
1403636589163555328,0.13775,-0.06245,0.14189,-0.32124,0.65915,0.62257,0.27337,
1403636589263555584,0.09219,-0.06988,0.14821,-0.32347,0.65606,0.62501,0.27262,
1403636589363555328,0.04474,-0.07773,0.15182,-0.32299,0.65290,0.63028,0.26860,
1403636589463555584,-0.00278,-0.08474,0.15393,-0.32183,0.64961,0.63497,0.26691,
1403636589563555584,-0.05067,-0.09193,0.15477,-0.32466,0.64706,0.63615,0.26686,
1403636589663555328,-0.09744,-0.09856,0.15491,-0.32693,0.64393,0.63773,0.26790,
1403636589763555584,-0.14272,-0.10516,0.15376,-0.32925,0.64116,0.64025,0.26570,
1403636589863555328,-0.18327,-0.11100,0.15033,-0.32903,0.63823,0.64612,0.25872,
1403636589963555584,-0.21731,-0.11582,0.14597,-0.33004,0.63567,0.65125,0.25074,
1403636590063555584,-0.24379,-0.11995,0.14447,-0.33623,0.63107,0.65351,0.24823,
1403636590563555584,-0.20586,-0.12854,0.15538,-0.33544,0.62897,0.65028,0.26270,
1403636590663555328,-0.16885,-0.12776,0.15811,-0.33352,0.63095,0.64719,0.26799,
1403636590763555584,-0.12736,-0.12547,0.15883,-0.32989,0.63501,0.64450,0.26934,
1403636590863555328,-0.08322,-0.12133,0.15686,-0.32649,0.63998,0.64310,0.26504,
1403636590963555584,-0.03638,-0.11589,0.15425,-0.32265,0.64347,0.64208,0.26380,
1403636591063555584,0.00954,-0.10916,0.15145,-0.32372,0.64378,0.64123,0.26377,
1403636591263555584,0.09255,-0.09464,0.14637,-0.32374,0.64727,0.63860,0.26159,
1403636591463555584,0.14853,-0.08292,0.13359,-0.31856,0.65405,0.63410,0.26201,
1403636591663555328,0.18044,-0.06858,0.11886,-0.31904,0.65949,0.61677,0.28789,
1403636591763555584,0.18788,-0.06215,0.11556,-0.32540,0.65690,0.60615,0.30851,
1403636591863555328,0.19346,-0.05547,0.11589,-0.33155,0.65535,0.59474,0.32692,
1403636592063555584,0.20934,-0.03677,0.11612,-0.32428,0.66994,0.57980,0.33145,
1403636592263555584,0.23505,0.00380,0.11236,-0.30835,0.68754,0.57170,0.32460,
1403636592563555584,0.22894,0.09788,0.11337,-0.32076,0.67724,0.58578,0.30873,
1403636592663555328,0.20956,0.12990,0.11449,-0.33201,0.66242,0.59584,0.30974,
1403636592763555584,0.18015,0.15648,0.11442,-0.34154,0.64789,0.60885,0.30478,
1403636592863555328,0.13839,0.17402,0.11341,-0.35320,0.63309,0.62463,0.29030,
1403636592963555584,0.08629,0.17830,0.11120,-0.36257,0.61822,0.64176,0.27293,
1403636593063555584,0.02678,0.16707,0.11026,-0.37132,0.60252,0.65858,0.25565,
1403636593163555328,-0.03416,0.14054,0.11169,-0.38021,0.58685,0.67296,0.24119,
1403636593263555584,-0.09125,0.10548,0.11446,-0.39117,0.57738,0.68016,0.22583,
1403636593363555328,-0.13594,0.06277,0.11560,-0.39336,0.57239,0.68621,0.21623,
1403636593463555584,-0.16301,0.01647,0.11363,-0.38972,0.57213,0.68903,0.21454,
1403636593663555328,-0.16339,-0.07910,0.10311,-0.37553,0.59317,0.67891,0.21496,
1403636593763555584,-0.13894,-0.12252,0.09744,-0.36275,0.61343,0.66646,0.21896,
1403636593863555328,-0.10080,-0.15915,0.09390,-0.35080,0.63723,0.64516,0.23376,
1403636593963555584,-0.05416,-0.18635,0.09349,-0.34102,0.66000,0.61803,0.25717,
1403636594063555584,-0.00185,-0.20282,0.09487,-0.32866,0.68038,0.59132,0.28179,
1403636594163555328,0.05173,-0.20407,0.09530,-0.31433,0.69977,0.56808,0.29800,
1403636594263555584,0.10792,-0.19059,0.09414,-0.29977,0.71350,0.55286,0.30886,
1403636594363555328,0.16398,-0.16054,0.09329,-0.28843,0.71984,0.54505,0.31870,
1403636594463555584,0.21811,-0.12135,0.09393,-0.28424,0.71862,0.54148,0.33104,
1403636594563555584,0.26094,-0.07276,0.09447,-0.28907,0.71407,0.53876,0.34099,
1403636594763555584,0.27877,0.02286,0.09387,-0.30445,0.70484,0.54098,0.34328,
1403636594863555328,0.24776,0.06257,0.09056,-0.31650,0.69111,0.55476,0.33829,
1403636594963555584,0.19186,0.09121,0.08716,-0.33056,0.67006,0.57611,0.33142,
1403636595063555584,0.11810,0.10464,0.08488,-0.34851,0.64531,0.60197,0.31583,
1403636595163555328,0.03999,0.10442,0.08092,-0.36250,0.62315,0.62688,0.29547,
1403636595263555584,-0.02971,0.09058,0.07764,-0.37544,0.60444,0.64707,0.27386,
1403636595363555328,-0.08130,0.06641,0.07518,-0.38347,0.58934,0.66260,0.25803,
1403636595463555584,-0.11010,0.03757,0.07439,-0.38698,0.58201,0.67029,0.24944,
1403636595663555328,-0.08632,-0.02780,0.07071,-0.38010,0.58325,0.67483,0.24486,
1403636595763555584,-0.04098,-0.05849,0.06684,-0.36993,0.59248,0.66899,0.25412,
1403636595863555328,0.01621,-0.08558,0.06097,-0.35517,0.60769,0.65639,0.27152,
1403636595963555584,0.07239,-0.11302,0.05607,-0.34025,0.62673,0.64013,0.28578,
1403636596063555584,0.11774,-0.14393,0.05284,-0.32325,0.64611,0.62447,0.29681,
1403636596163555328,0.14287,-0.17953,0.05240,-0.31231,0.66158,0.61090,0.30262,
1403636596463555584,0.07594,-0.29524,0.08151,-0.31669,0.66716,0.59758,0.31226,
1403636596663555328,0.01056,-0.35949,0.10084,-0.31794,0.65954,0.60317,0.31640,
1403636597063555584,0.00892,-0.27289,0.09350,-0.31143,0.65093,0.61234,0.32302,
1403636597263555584,0.03977,-0.14070,0.09143,-0.31176,0.64336,0.62948,0.30438,
1403636597363555328,0.05035,-0.07027,0.09594,-0.32039,0.63189,0.63851,0.30062,
1403636597463555584,0.05493,-0.00332,0.09914,-0.32858,0.61825,0.64898,0.29771,
1403636597563555584,0.04972,0.04903,0.10019,-0.34017,0.60275,0.65998,0.29223,
1403636597663555328,0.03378,0.07910,0.09815,-0.35835,0.58763,0.66760,0.28386,
1403636597763555584,0.01056,0.08344,0.09579,-0.37417,0.57342,0.67370,0.27806,
1403636597863555328,-0.01016,0.06796,0.09336,-0.38310,0.56185,0.67876,0.27721,
1403636598063555584,-0.03624,-0.01430,0.08960,-0.38003,0.55092,0.69070,0.27385,
1403636598163555328,-0.03889,-0.06077,0.08354,-0.37015,0.55605,0.69487,0.26638,
1403636598263555584,-0.03504,-0.09976,0.07271,-0.35327,0.56302,0.70069,0.25932,
1403636598363555328,-0.02676,-0.12286,0.05945,-0.33993,0.56851,0.70337,0.25790,
1403636598563555584,-0.00488,-0.10904,0.03131,-0.34058,0.56709,0.70128,0.26575,
1403636598763555584,0.01058,-0.04357,0.00308,-0.37683,0.54719,0.69547,0.27369,
1403636598863555328,0.01613,-0.01131,-0.01736,-0.39851,0.53679,0.68874,0.28051,
1403636598963555584,0.02160,0.01675,-0.04041,-0.41266,0.53049,0.68100,0.29075,
1403636599163555328,0.02718,0.05444,-0.07612,-0.44589,0.51586,0.66587,0.30281,
1403636599263555584,0.02828,0.06758,-0.08515,-0.46739,0.50579,0.65112,0.31900,
1403636599463555584,0.02943,0.08768,-0.10250,-0.48256,0.49864,0.63422,0.34098,
1403636600063555584,0.04089,0.09070,-0.12212,-0.49040,0.50648,0.61595,0.35156,
1403636624563555584,0.06176,0.07556,-0.12332,-0.47292,0.52105,0.62065,0.34590,
1403636626063555584,0.10795,0.08245,0.08860,-0.46588,0.50460,0.63390,0.35569,
1403636626563555584,0.10194,0.13662,0.20487,-0.47878,0.50129,0.62658,0.35619,
1403636627063555584,0.14877,0.09934,0.21994,-0.45627,0.50088,0.64754,0.34875,
1403636627763555584,0.22028,0.08558,0.26845,-0.44754,0.52149,0.63511,0.35270,
1403636627963555584,0.25654,0.07859,0.24288,-0.42536,0.54087,0.63260,0.35547,
1403636628163555328,0.27227,0.09343,0.24537,-0.43135,0.54256,0.61842,0.37031,
1403636628363555328,0.29080,0.12161,0.28360,-0.44968,0.54292,0.60161,0.37562,
1403636628963555584,0.41647,0.17071,0.34504,-0.42651,0.55595,0.60642,0.37586,
1403636629263555584,0.51021,0.19770,0.39903,-0.41463,0.56996,0.59636,0.38416,
1403636629463555584,0.56845,0.22620,0.40805,-0.42062,0.58026,0.57749,0.39099,
1403636629663555328,0.63122,0.26841,0.38361,-0.40731,0.60192,0.56089,0.39647,
1403636629763555584,0.67227,0.28969,0.36584,-0.39240,0.61492,0.55517,0.39960,
1403636629863555328,0.71266,0.32237,0.34009,-0.37882,0.62860,0.54499,0.40540,
1403636630163555328,0.83419,0.42105,0.29408,-0.36602,0.64517,0.51590,0.42854,
1403636630363555328,0.91378,0.50582,0.29683,-0.37095,0.64177,0.50589,0.44114,
1403636631363555328,1.30158,0.93533,0.33947,-0.37608,0.63300,0.51843,0.43487,
1403636632363555328,1.58060,1.38204,0.27237,-0.36809,0.62684,0.52281,0.44526,
1403636632663555328,1.62554,1.49640,0.22119,-0.37389,0.63876,0.52844,0.41587,
1403636632863555328,1.64783,1.59380,0.19435,-0.38992,0.61675,0.55277,0.40252,
1403636633063555584,1.69285,1.69063,0.19362,-0.40280,0.58277,0.57958,0.40277,
1403636633463555584,1.73356,1.92744,0.16229,-0.41336,0.57277,0.59517,0.38319,
1403636633963555584,1.82099,2.23174,0.11343,-0.41445,0.58680,0.58285,0.37972,
1403636634363555328,1.91672,2.52216,0.13603,-0.41343,0.57986,0.58422,0.38926,
1403636634663555328,2.00077,2.74873,0.14197,-0.42076,0.56402,0.58752,0.39957,
1403636635063555584,2.09618,3.03528,0.14756,-0.42292,0.54995,0.60991,0.38303,
1403636635563555584,2.18627,3.40139,0.14777,-0.42982,0.55450,0.61279,0.36368,
1403636635863555328,2.24289,3.63443,0.19963,-0.44319,0.55638,0.60095,0.36453,
1403636636263555584,2.36456,3.97083,0.31240,-0.42879,0.55063,0.60988,0.37548,
1403636636463555584,2.43134,4.13763,0.38543,-0.44284,0.53716,0.60022,0.39381,
1403636636763555584,2.51659,4.35475,0.43846,-0.43093,0.52515,0.60826,0.41053,
1403636637163555328,2.56288,4.57053,0.41070,-0.43420,0.53848,0.61022,0.38619,
1403636637963555584,2.55523,4.94770,0.47633,-0.43659,0.53709,0.61625,0.37571,
1403636638463555584,2.53267,5.18409,0.44055,-0.43581,0.54983,0.61909,0.35283,
1403636638963555584,2.56596,5.45775,0.43043,-0.44019,0.54254,0.61834,0.35992,
1403636639563555584,2.68388,5.87918,0.37368,-0.43421,0.53557,0.62334,0.36888,
1403636639963555584,2.78004,6.17609,0.29622,-0.44804,0.53003,0.61492,0.37445,
1403636640363555328,2.86375,6.43526,0.32045,-0.45530,0.51105,0.63097,0.36524,
1403636641863555328,3.10218,7.07843,0.23016,-0.45748,0.50717,0.63572,0.35965,
1403636642163555328,3.14484,7.16646,0.27535,-0.45156,0.51976,0.62273,0.37168,
1403636642463555584,3.18427,7.23765,0.27591,-0.44530,0.53492,0.60748,0.38279,
1403636642763555584,3.22198,7.27905,0.22321,-0.42884,0.55152,0.60849,0.37638,
1403636644363555328,3.47141,7.77337,0.27707,-0.44182,0.55663,0.60303,0.36236,
1403636644763555584,3.58538,8.01533,0.17292,-0.45257,0.54700,0.59504,0.37670,
1403636645063555584,3.70131,8.16350,0.05381,-0.42620,0.55298,0.61064,0.37376,
1403636645263555584,3.77780,8.26912,0.00957,-0.40415,0.56805,0.62385,0.35327,
1403636645563555584,3.87779,8.49306,-0.01619,-0.41378,0.56170,0.61608,0.36567,
1403636645963555584,3.99608,8.85732,-0.03972,-0.42070,0.56089,0.60990,0.36938,
1403636646163555328,4.05782,9.05906,-0.00172,-0.42567,0.57545,0.58503,0.38133,
1403636646263555584,4.09449,9.16572,0.01251,-0.42363,0.58933,0.56603,0.39094,
1403636646363555328,4.13499,9.26963,0.02122,-0.42033,0.60406,0.54358,0.40368,
1403636646463555584,4.17859,9.36350,0.02306,-0.41092,0.61427,0.52499,0.42214,
1403636646563555584,4.22662,9.45588,0.02606,-0.40116,0.61940,0.51224,0.43933,
1403636646763555584,4.32295,9.62311,0.04957,-0.38258,0.63198,0.50195,0.44976,
1403636647363555328,4.60040,10.01166,0.16090,-0.37199,0.64140,0.50175,0.44550,
1403636647663555328,4.74181,10.15452,0.17297,-0.38937,0.63511,0.49257,0.44990,
1403636647963555584,4.89948,10.26247,0.19150,-0.37317,0.64430,0.48644,0.45715,
1403636648163555328,5.00993,10.30938,0.17002,-0.35179,0.66566,0.45880,0.47186,
1403636648263555584,5.06544,10.32368,0.15199,-0.33927,0.67797,0.44006,0.48125,
1403636648363555328,5.12279,10.33375,0.13034,-0.32573,0.69025,0.42038,0.49065,
1403636648463555584,5.18031,10.33883,0.10497,-0.31070,0.70293,0.40018,0.49921,
1403636648563555584,5.23779,10.34209,0.07985,-0.29744,0.71406,0.38046,0.50686,
1403636648763555584,5.34355,10.34165,0.04631,-0.27396,0.72986,0.36004,0.51246,
1403636648963555584,5.44514,10.34102,0.04315,-0.25552,0.74679,0.35947,0.49779,
1403636649263555584,5.60838,10.35868,0.10864,-0.26437,0.73014,0.35421,0.52110,
1403636649763555584,5.84117,10.36689,0.32158,-0.27224,0.72687,0.35015,0.52435,
1403636650063555584,5.95552,10.33913,0.40696,-0.25948,0.73035,0.33644,0.53484,
1403636650263555584,6.02028,10.29875,0.41935,-0.24246,0.74056,0.31413,0.54231,
1403636650363555328,6.04972,10.27329,0.41718,-0.22852,0.75036,0.29479,0.54574,
1403636650463555584,6.07706,10.24591,0.40848,-0.21097,0.76127,0.27498,0.54803,
1403636650563555584,6.10118,10.21832,0.39692,-0.19485,0.77227,0.25649,0.54758,
1403636650763555584,6.14430,10.16051,0.36557,-0.17483,0.78378,0.23318,0.54841,
1403636651063555584,6.20128,10.07755,0.36568,-0.16867,0.77768,0.22009,0.56421,
1403636651963555584,6.25285,9.76767,0.41915,-0.18270,0.77772,0.20040,0.56711,
1403636652063555584,6.25185,9.71956,0.40164,-0.16829,0.78262,0.18195,0.57103,
1403636652163555328,6.24915,9.66350,0.38262,-0.14314,0.79056,0.16175,0.57302,
1403636652263555584,6.24314,9.60317,0.36008,-0.11656,0.80080,0.13549,0.57165,
1403636652363555328,6.23020,9.53932,0.33087,-0.09178,0.81273,0.10736,0.56527,
1403636652463555584,6.21939,9.47699,0.30286,-0.07370,0.81991,0.08350,0.56155,
1403636652563555584,6.21097,9.41699,0.28061,-0.06161,0.82595,0.06545,0.55654,
1403636652763555584,6.20975,9.30154,0.26282,-0.04499,0.83448,0.04997,0.54692,
1403636653163555328,6.28316,9.09005,0.28915,-0.04282,0.82371,0.05329,0.56288,
1403636653663555328,6.40619,8.85674,0.31239,-0.05506,0.80832,0.07124,0.58181,
1403636654263555584,6.44607,8.60876,0.30945,-0.05458,0.80617,0.05906,0.58619,
1403636654463555584,6.43335,8.52022,0.32070,-0.03200,0.81163,0.03383,0.58231,
1403636654563555584,6.42304,8.47815,0.33771,-0.01714,0.81331,0.01721,0.58133,
1403636654763555584,6.39883,8.39808,0.36718,-0.00192,0.81915,-0.01163,0.57345,
1403636654963555584,6.37398,8.32579,0.37169,0.01114,0.81743,-0.02437,0.57541,
1403636655263555584,6.32888,8.22635,0.34461,0.01400,0.80417,-0.03419,0.59325,
1403636655563555584,6.24004,8.12639,0.31907,0.02675,0.80281,-0.06105,0.59250,
1403636655763555584,6.14677,8.05837,0.30151,0.03851,0.81413,-0.08885,0.57255,
1403636655963555584,6.05436,7.97881,0.24284,0.05558,0.81380,-0.12288,0.56529,
1403636656163555328,5.96734,7.88780,0.19862,0.07443,0.81008,-0.14590,0.56298,
1403636656363555328,5.88590,7.78749,0.19876,0.08504,0.81171,-0.15336,0.55712,
1403636656763555584,5.77082,7.56885,0.26203,0.08833,0.80046,-0.14538,0.57474,
1403636657363555328,5.55618,7.25595,0.22278,0.07471,0.79610,-0.14143,0.58364,
1403636657563555584,5.45907,7.15316,0.20435,0.06810,0.80634,-0.14681,0.56888,
1403636657863555328,5.30817,6.97631,0.14889,0.06583,0.80631,-0.15576,0.56681,
1403636658063555584,5.21183,6.83831,0.11535,0.06566,0.80972,-0.16245,0.56005,
1403636658263555584,5.11706,6.68230,0.11152,0.08537,0.81126,-0.15344,0.55770,
1403636658463555584,5.03069,6.52466,0.09615,0.09524,0.81339,-0.14958,0.55404,
1403636658663555328,4.95766,6.36970,0.06994,0.10701,0.81444,-0.14241,0.55222,
1403636658963555584,4.87151,6.16217,0.01312,0.11304,0.80505,-0.13885,0.56554,
1403636659363555328,4.76867,5.95395,-0.10017,0.10464,0.79965,-0.14414,0.57344,
1403636659663555328,4.68987,5.83813,-0.14778,0.10723,0.80456,-0.14395,0.56610,
1403636660063555584,4.59098,5.72030,-0.25859,0.11011,0.80953,-0.14936,0.55697,
1403636660363555328,4.53662,5.65874,-0.37318,0.11007,0.82194,-0.15205,0.53775,
1403636660863555328,4.58164,5.58328,-0.51973,0.12966,0.80403,-0.13533,0.56428,
1403636661363555328,4.67005,5.62719,-0.73706,0.11393,0.79640,-0.14491,0.57600,
1403636661863555328,4.70828,5.76603,-0.81208,0.09624,0.79406,-0.15444,0.57997,
1403636662563555584,4.63482,5.97608,-0.77500,0.11183,0.80892,-0.14670,0.55823,
1403636662863555328,4.60084,6.07931,-0.81928,0.08361,0.80439,-0.16994,0.56310,
1403636663163555328,4.57165,6.14145,-0.88173,0.07267,0.81309,-0.17997,0.54883,
1403636663463555584,4.56536,6.14506,-0.93468,0.11038,0.82498,-0.15461,0.53228,
1403636663963555584,4.71205,6.15688,-1.06374,0.14122,0.82211,-0.12638,0.53687,
1403636664163555328,4.83651,6.20080,-1.07351,0.13743,0.81145,-0.12296,0.55456,
1403636664363555328,4.97494,6.27848,-1.08296,0.12024,0.80293,-0.12715,0.56981,
1403636664563555584,5.11017,6.37541,-1.14141,0.10857,0.80006,-0.12597,0.57641,
1403636664763555584,5.23265,6.48694,-1.19210,0.09407,0.80108,-0.12619,0.57750,
1403636664963555584,5.34303,6.60513,-1.21303,0.09168,0.80574,-0.11984,0.57272,
1403636665163555328,5.44712,6.72964,-1.20673,0.08450,0.81553,-0.12023,0.55975,
1403636665363555328,5.55285,6.85447,-1.18512,0.07120,0.80950,-0.12698,0.56879,
1403636665763555584,5.75603,7.08558,-1.13102,0.09937,0.81113,-0.11359,0.56506,
1403636665963555584,5.86080,7.21410,-1.09920,0.08113,0.80286,-0.13069,0.57598,
1403636666263555584,5.99729,7.40574,-1.07927,0.08278,0.80076,-0.13213,0.57834,
1403636666563555584,6.10176,7.58573,-1.08902,0.07341,0.80281,-0.13519,0.57604,
1403636666863555328,6.17632,7.74631,-1.05443,0.07607,0.81947,-0.12706,0.55365,
1403636667063555584,6.23720,7.84678,-1.04817,0.05385,0.82313,-0.14070,0.54750,
1403636667263555584,6.30676,7.91963,-1.05326,0.07996,0.80818,-0.12108,0.57079,
1403636667663555328,6.43025,8.07356,-1.10067,0.07344,0.81824,-0.12287,0.55677,
1403636668863555328,6.90798,8.46164,-1.26709,0.11335,0.81164,-0.11991,0.56037,
1403636669163555328,7.06253,8.60548,-1.28648,0.10263,0.80212,-0.12927,0.57390,
1403636669563555584,7.24177,8.85685,-1.33498,0.10200,0.79511,-0.13090,0.58331,
1403636669863555328,7.32768,9.07437,-1.37216,0.08110,0.78228,-0.14048,0.60143,
1403636670063555584,7.33864,9.21319,-1.36541,0.04753,0.78933,-0.16159,0.59041,
1403636670263555584,7.31446,9.31936,-1.33789,0.02162,0.78256,-0.16650,0.59951,
1403636670463555584,7.25081,9.37950,-1.32554,-0.00585,0.78181,-0.16206,0.60206,
1403636670663555328,7.13740,9.36800,-1.29943,-0.03306,0.78803,-0.13482,0.59978,
1403636670863555328,6.98834,9.28465,-1.25576,-0.06719,0.79042,-0.09773,0.60098,
1403636670963555584,6.90165,9.22071,-1.23648,-0.09383,0.78762,-0.08016,0.60368,
1403636671063555584,6.80841,9.13840,-1.21022,-0.11468,0.78491,-0.05378,0.60653,
1403636671263555584,6.59919,8.89698,-1.13470,-0.12763,0.79116,0.01214,0.59802,
1403636671463555584,6.36988,8.58304,-1.05257,-0.09479,0.81039,0.08601,0.57174,
1403636671663555328,6.14807,8.25925,-0.99005,-0.09125,0.82714,0.12720,0.53975,
1403636671863555328,5.95727,7.95036,-0.94431,-0.08978,0.83803,0.14170,0.51919,
1403636672063555584,5.81911,7.67209,-0.88395,-0.07292,0.84945,0.15059,0.50044,
1403636672263555584,5.74785,7.44766,-0.79083,-0.05105,0.84514,0.15972,0.50757,
1403636672463555584,5.72414,7.28153,-0.71239,-0.03474,0.82874,0.16908,0.53235,
1403636672563555584,5.72221,7.22072,-0.69135,-0.04823,0.81450,0.15973,0.55565,
1403636672763555584,5.71927,7.12509,-0.70906,-0.07706,0.80799,0.13928,0.56729,
1403636673063555584,5.70817,7.02355,-0.77259,-0.09610,0.81053,0.16890,0.55252,
1403636673263555584,5.71545,6.99012,-0.78033,-0.10425,0.81924,0.19597,0.52875,
1403636673763555584,5.82933,7.04708,-0.76890,-0.11968,0.80158,0.21220,0.54599,
1403636674263555584,5.97004,7.26197,-0.78312,-0.13025,0.79540,0.20705,0.55452,
1403636674463555584,6.01883,7.37766,-0.82864,-0.15814,0.79605,0.19704,0.54998,
1403636674663555328,6.06488,7.48567,-0.89488,-0.17569,0.78944,0.21148,0.54881,
1403636674863555328,6.10946,7.57941,-0.97874,-0.18075,0.79890,0.22475,0.52781,
1403636675063555584,6.17170,7.66489,-1.03777,-0.17706,0.81027,0.23378,0.50741,
1403636675463555584,6.39752,7.89041,-1.04985,-0.15142,0.79097,0.26003,0.53276,
1403636675663555328,6.52835,8.03895,-1.06527,-0.16072,0.77125,0.27845,0.54937,
1403636675863555328,6.62736,8.20995,-1.09053,-0.20296,0.75857,0.28667,0.54882,
1403636675963555584,6.67260,8.29557,-1.11670,-0.23127,0.75891,0.29027,0.53509,
1403636676063555584,6.71584,8.37842,-1.14565,-0.24678,0.75710,0.30425,0.52282,
1403636676263555584,6.80138,8.52962,-1.21505,-0.24257,0.73899,0.35942,0.51563,
1403636676463555584,6.87850,8.68742,-1.27883,-0.24734,0.71515,0.41210,0.50750,
1403636676563555584,6.90524,8.77246,-1.29890,-0.26508,0.70818,0.42551,0.49714,
1403636676663555328,6.92668,8.86905,-1.30203,-0.28337,0.70265,0.43261,0.48870,
1403636676863555328,6.96120,9.04953,-1.30854,-0.31101,0.69827,0.43588,0.47508,
1403636677263555584,7.06641,9.40695,-1.36532,-0.30670,0.68357,0.44906,0.48684,
1403636677463555584,7.09328,9.58210,-1.40542,-0.32367,0.66334,0.45501,0.49818,
1403636677663555328,7.09604,9.74254,-1.42067,-0.35189,0.64771,0.46877,0.48673,
1403636677763555584,7.09022,9.81623,-1.42436,-0.36536,0.64270,0.48046,0.47181,
1403636677863555328,7.08451,9.86894,-1.41121,-0.37971,0.64102,0.49439,0.44777,
1403636677963555584,7.07759,9.91942,-1.39985,-0.39220,0.63555,0.51083,0.42579,
1403636678063555584,7.07621,9.96995,-1.38984,-0.40021,0.62417,0.52879,0.41306,
1403636678263555584,7.09157,10.06383,-1.38541,-0.40243,0.59564,0.55972,0.41228,
1403636678463555584,7.11174,10.14930,-1.37580,-0.41551,0.57522,0.58129,0.39821,
1403636678663555328,7.12980,10.22971,-1.34205,-0.43013,0.54781,0.60706,0.38258,
1403636678863555328,7.14379,10.30185,-1.32124,-0.43198,0.50170,0.64662,0.37891,
1403636679063555584,7.13503,10.37153,-1.32519,-0.44286,0.46796,0.67145,0.36612,
1403636679163555328,7.11823,10.40134,-1.33429,-0.45913,0.45610,0.67647,0.35150,
1403636679263555584,7.09534,10.42720,-1.34521,-0.48115,0.44487,0.67857,0.33186,
1403636679363555328,7.07012,10.44893,-1.35130,-0.49764,0.43095,0.68446,0.31329,
1403636679463555584,7.04602,10.46834,-1.34970,0.50791,-0.41502,-0.69386,-0.29723,
1403636679563555584,7.02499,10.48255,-1.34058,0.51340,-0.39992,-0.70408,-0.28417,
1403636679763555584,6.99418,10.50374,-1.30474,0.51631,-0.38120,-0.71832,-0.26858,
1403636680063555584,6.96336,10.51811,-1.19776,0.51724,-0.35582,-0.72212,-0.29053,
1403636680963555584,6.68597,10.16858,-1.02775,0.50431,-0.39399,-0.72073,-0.26645,
1403636681163555328,6.58603,10.05146,-1.04778,-0.48755,0.40050,0.73156,0.25827,
1403636681363555328,6.48304,9.95490,-1.06370,0.50192,-0.38481,-0.72274,-0.27864,
1403636681663555328,6.31664,9.81041,-1.04967,0.51081,-0.37902,-0.71892,-0.28030,
1403636681963555584,6.14974,9.65282,-1.04704,0.51387,-0.37422,-0.71969,-0.27917,
1403636682263555584,5.98647,9.47569,-1.00038,0.51325,-0.37867,-0.72203,-0.26805,
1403636682763555584,5.72036,9.18335,-0.98617,0.51536,-0.37978,-0.71689,-0.27612,
1403636683263555584,5.45979,8.86344,-0.94912,0.51327,-0.37886,-0.71707,-0.28076,
1403636683563555584,5.31244,8.64472,-0.97660,0.51608,-0.37846,-0.71827,-0.27297,
1403636683863555328,5.17755,8.43431,-1.02111,0.50915,-0.38229,-0.72569,-0.26076,
1403636684263555584,4.97253,8.15828,-0.98098,0.51795,-0.37389,-0.72387,-0.26067,
1403636684563555584,4.86415,7.95881,-0.93844,0.52707,-0.37115,-0.71972,-0.25779,
1403636685163555328,4.71123,7.54044,-0.98365,0.51818,-0.36634,-0.72532,-0.26683,
1403636685863555328,4.52164,7.00797,-0.96992,0.50935,-0.37081,-0.72514,-0.27791,
1403636686163555328,4.42837,6.77341,-1.02380,0.51070,-0.37934,-0.72487,-0.26430,
1403636686563555584,4.30326,6.47801,-1.00405,0.50677,-0.38473,-0.72714,-0.25774,
1403636687063555584,4.15059,6.17023,-1.00844,0.51497,-0.38140,-0.72307,-0.25790,
1403636687563555584,4.02239,5.90671,-0.98604,0.52017,-0.37653,-0.72085,-0.26079,
1403636688063555584,3.94605,5.66999,-1.11989,0.51897,-0.37065,-0.72336,-0.26465,
1403636688463555584,3.90585,5.49775,-1.21827,0.51803,-0.37162,-0.72456,-0.26183,
1403636688863555328,3.84173,5.29521,-1.33432,0.50954,-0.36044,-0.73351,-0.26910,
1403636689063555584,3.78872,5.18139,-1.37129,0.51303,-0.35724,-0.73863,-0.25220,
1403636689263555584,3.72786,5.06760,-1.38148,0.51521,-0.35373,-0.74367,-0.23744,
1403636689463555584,3.66112,4.96468,-1.35662,0.51699,-0.34893,-0.74640,-0.23207,
1403636689763555584,3.56402,4.84514,-1.27269,0.51081,-0.35903,-0.75139,-0.21349,
1403636690063555584,3.46019,4.78468,-1.22081,0.51933,-0.36996,-0.74255,-0.20505,
1403636690563555584,3.31468,4.85375,-1.14571,0.51470,-0.36369,-0.74451,-0.22025,
1403636690763555584,3.25575,4.91407,-1.13356,0.53275,-0.37753,-0.73040,-0.20040,
1403636690963555584,3.22217,4.99746,-1.16614,0.55898,-0.38094,-0.71050,-0.19393,
1403636691163555328,3.23870,5.10121,-1.18509,0.58147,-0.36864,-0.69489,-0.20766,
1403636691263555584,3.27060,5.15386,-1.18197,0.57998,-0.35419,-0.69753,-0.22720,
1403636691363555328,3.31651,5.20189,-1.17258,0.57173,-0.34293,-0.70504,-0.24175,
1403636691563555584,3.43438,5.28322,-1.13427,0.54847,-0.34424,-0.72574,-0.23232,
1403636691763555584,3.56861,5.35457,-1.06532,0.53240,-0.33503,-0.73928,-0.24034,
1403636692063555584,3.77342,5.44240,-0.99607,0.54219,-0.33802,-0.73249,-0.23499,
1403636692263555584,3.91224,5.49125,-0.95077,0.53402,-0.33471,-0.73752,-0.24259,
1403636692563555584,4.11823,5.54092,-0.82753,0.52792,-0.33647,-0.74014,-0.24552,
1403636692863555328,4.30812,5.57000,-0.67474,0.50700,-0.33049,-0.75226,-0.26044,
1403636693563555584,4.55086,5.59380,-0.47687,-0.49580,0.35367,0.76189,0.22053,
1403636693963555584,4.58304,5.67997,-0.43876,0.51804,-0.34404,-0.74838,-0.23068,
1403636694263555584,4.57809,5.76936,-0.43364,0.53442,-0.33691,-0.73772,-0.23805,
1403636695163555328,4.58949,5.99388,-0.44395,0.52877,-0.35079,-0.73825,-0.22877,
1403636695563555584,4.61818,6.10106,-0.41146,0.52426,-0.34564,-0.73828,-0.24622,
1403636696263555584,4.64709,6.23417,-0.44956,0.50905,-0.35019,-0.74546,-0.25005,
1403636697263555584,4.63469,6.25728,-0.50515,0.51021,-0.33250,-0.74164,-0.28126,
1403636697563555584,4.58288,6.17594,-0.44787,0.51111,-0.35402,-0.74020,-0.25599,
1403636697863555328,4.50989,6.08161,-0.38462,-0.49629,0.39143,0.72126,0.28332,
1403636698163555328,4.41296,5.97894,-0.37601,-0.48710,0.42423,0.70186,0.30025,
1403636698463555584,4.30770,5.87558,-0.40638,-0.47287,0.45496,0.68279,0.32126,
1403636698663555328,4.23312,5.81059,-0.44223,-0.45618,0.48784,0.66085,0.34234,
1403636698863555328,4.15469,5.74911,-0.49192,-0.43725,0.52763,0.63082,0.36398,
1403636698963555584,4.11313,5.72012,-0.51574,-0.42716,0.54719,0.61411,0.37548,
1403636699163555328,4.02967,5.66813,-0.54140,-0.41159,0.58547,0.57644,0.39439,
1403636699263555584,3.99194,5.63991,-0.54155,-0.40222,0.60600,0.55569,0.40273,
1403636699363555328,3.95574,5.61678,-0.53922,-0.39175,0.62657,0.53496,0.40959,
1403636699463555584,3.92511,5.59777,-0.53334,-0.38152,0.64518,0.51479,0.41615,
1403636699563555584,3.90044,5.58081,-0.52828,-0.37083,0.66075,0.49587,0.42428,
1403636699663555328,3.88046,5.56252,-0.52879,-0.36136,0.67541,0.47620,0.43182,
1403636699763555584,3.86747,5.54470,-0.53366,-0.34886,0.68546,0.46025,0.44341,
1403636699963555584,3.85547,5.51162,-0.55263,-0.33292,0.69158,0.44190,0.46433,
1403636700463555584,3.88271,5.42922,-0.66761,-0.32478,0.70498,0.42196,0.46847,
1403636700663555328,3.92668,5.39389,-0.74586,-0.31253,0.70591,0.40856,0.48692,
1403636700863555328,3.97004,5.35125,-0.81909,-0.29803,0.71287,0.39664,0.49566,
1403636701163555328,4.03258,5.28625,-0.87460,-0.28361,0.72495,0.40008,0.48369,
1403636701963555584,4.25963,5.20747,-0.84348,-0.28454,0.72053,0.38986,0.49788,
1403636702163555328,4.32021,5.19072,-0.87317,-0.26551,0.73727,0.35597,0.50913,
1403636702363555328,4.38135,5.17186,-0.92362,-0.24322,0.75211,0.33251,0.51440,
1403636702563555584,4.44363,5.15860,-0.98995,-0.22530,0.75916,0.32511,0.51693,
1403636702863555328,4.53975,5.16497,-1.12217,-0.21414,0.76493,0.32570,0.51279,
1403636703363555328,4.72465,5.23702,-1.27196,-0.25052,0.75724,0.30511,0.52032,
1403636704263555584,5.09280,5.30312,-1.33240,-0.23893,0.75582,0.32583,0.51526,
1403636704763555584,5.31297,5.36004,-1.36397,-0.22206,0.76338,0.34138,0.50139,
1403636705363555328,5.65133,5.59732,-1.45410,-0.22898,0.74821,0.34418,0.51893,
1403636705963555584,6.00098,6.00272,-1.53367,-0.24359,0.74999,0.33291,0.51705,
1403636706663555328,6.42180,6.45386,-1.60713,-0.22926,0.74509,0.35010,0.51933,
1403636707163555328,6.69804,6.82017,-1.59089,-0.22434,0.74997,0.34223,0.51971,
1403636707663555328,6.95160,7.25257,-1.48550,-0.22429,0.75936,0.33175,0.51285,
1403636707963555584,7.09454,7.52784,-1.46368,-0.23578,0.75857,0.32738,0.51167,
1403636708263555584,7.25300,7.81168,-1.51749,-0.24071,0.74963,0.33254,0.51915,
1403636708463555584,7.36022,7.98692,-1.56635,-0.26414,0.75096,0.31769,0.51514,
1403636708863555328,7.59563,8.27583,-1.62372,-0.23477,0.73847,0.33348,0.53697,
1403636709263555584,7.78423,8.52072,-1.66841,-0.22123,0.73970,0.32735,0.54475,
1403636709963555584,7.90929,8.98555,-1.71947,-0.21691,0.74499,0.33491,0.53458,
1403636710363555328,7.89811,9.28716,-1.74407,-0.23769,0.74293,0.33321,0.52965,
1403636710563555584,7.87792,9.43869,-1.79032,-0.26611,0.74152,0.33701,0.51552,
1403636710763555584,7.86222,9.57277,-1.85312,-0.28380,0.72914,0.35881,0.50898,
1403636710963555584,7.85096,9.69353,-1.90044,-0.28834,0.70752,0.39875,0.50722,
1403636711163555328,7.84216,9.81282,-1.92833,-0.28942,0.69230,0.42485,0.50643,
1403636711463555584,7.78373,9.99128,-1.92799,-0.30681,0.68273,0.42246,0.51115,
1403636712063555584,7.53479,10.18803,-1.87687,-0.31558,0.69762,0.40484,0.49983,
1403636712363555328,7.39049,10.20788,-1.79781,-0.31539,0.68167,0.42719,0.50335,
1403636712563555584,7.28259,10.20542,-1.72600,-0.32334,0.66491,0.44766,0.50293,
1403636712763555584,7.16412,10.18411,-1.65718,-0.34218,0.65390,0.45273,0.50037,
1403636713163555328,6.89414,10.09381,-1.58934,-0.34434,0.65612,0.46157,0.48774,
1403636713663555328,6.54989,9.88191,-1.39029,-0.34747,0.67033,0.45650,0.47067,
1403636714363555328,6.17863,9.50820,-1.25987,-0.33873,0.67869,0.44774,0.47347,
1403636714663555328,6.07746,9.32785,-1.28449,-0.33697,0.68006,0.46889,0.45180,
1403636714863555328,6.01138,9.23240,-1.27356,-0.34995,0.65638,0.50353,0.43949,
1403636714963555584,5.98266,9.18626,-1.26248,-0.35871,0.64178,0.52286,0.43136,
1403636715163555328,5.92911,9.10393,-1.21371,-0.37113,0.61972,0.55096,0.41791,
1403636715463555584,5.85895,9.01976,-1.14751,-0.39233,0.60730,0.55477,0.41170,
1403636715863555328,5.79838,8.93975,-1.14687,-0.40809,0.59589,0.54006,0.43210,
1403636716463555584,5.74992,8.70853,-1.08185,-0.39128,0.61364,0.53568,0.42825,
1403636716863555328,5.73381,8.53146,-1.11657,-0.40266,0.59530,0.55443,0.41963,
1403636717063555584,5.71914,8.43683,-1.13237,-0.41950,0.57001,0.58187,0.40067,
1403636717263555584,5.70540,8.33642,-1.12230,-0.42977,0.54565,0.60536,0.38872,
1403636717863555328,5.61438,8.01472,-1.13026,-0.42998,0.52066,0.62729,0.38800,
1403636718063555584,5.54245,7.89387,-1.13521,-0.43849,0.50188,0.64306,0.37725,
1403636718163555328,5.49791,7.83364,-1.12898,-0.44979,0.49278,0.65039,0.36310,
1403636718263555584,5.45301,7.77726,-1.12720,-0.45874,0.48516,0.65682,0.35039,
1403636718463555584,5.35541,7.65701,-1.14643,-0.47352,0.47083,0.66863,0.32717,
1403636718563555584,5.30625,7.60132,-1.16562,-0.48137,0.46263,0.67421,0.31574,
1403636718763555584,5.20476,7.49228,-1.20807,-0.49388,0.45513,0.68025,0.29358,
1403636719163555328,5.07072,7.30903,-1.27587,-0.49319,0.42948,0.69064,0.30876,
1403636719763555584,4.86867,7.00827,-1.33854,-0.49368,0.44254,0.68323,0.30602,
1403636720463555584,4.74149,6.65712,-1.39785,-0.48817,0.45177,0.68260,0.30273,
1403636721063555584,4.69340,6.44139,-1.39985,-0.48096,0.47381,0.66531,0.31866,
1403636721263555584,4.70134,6.38611,-1.42400,-0.47538,0.49397,0.64552,0.33660,
1403636721563555584,4.71830,6.29463,-1.41288,-0.46067,0.51430,0.63051,0.35459,
1403636721863555328,4.74581,6.19676,-1.42326,-0.44899,0.52516,0.62271,0.36721,
1403636722863555328,4.78731,5.82872,-1.46478,-0.43782,0.52910,0.62143,0.37708,
1403636723563555584,4.76418,5.56848,-1.43350,-0.43763,0.53829,0.60317,0.39358,
1403636723963555584,4.72649,5.40536,-1.39955,-0.42088,0.56671,0.59039,0.39134,
1403636724163555328,4.71060,5.32322,-1.40661,-0.40484,0.58291,0.58376,0.39439,
1403636724363555328,4.70275,5.25745,-1.43045,-0.39081,0.60202,0.56214,0.41090,
1403636724563555584,4.68850,5.18321,-1.43697,-0.38241,0.61377,0.54009,0.43052,
1403636726363555328,4.54624,4.76915,-1.13443,-0.38352,0.61686,0.53518,0.43125,
1403636727563555584,4.56151,4.52157,-0.87228,-0.38990,0.59911,0.54778,0.43472,
1403636728663555328,4.34822,4.17186,-0.63468,-0.40513,0.60587,0.53972,0.42130,
1403636728863555328,4.30028,4.09722,-0.61103,-0.40573,0.58452,0.56276,0.42074,
1403636729063555584,4.24955,4.01162,-0.58082,-0.41516,0.56700,0.57612,0.41743,
1403636729463555584,4.14299,3.81721,-0.57222,-0.42203,0.55958,0.58490,0.40824,
1403636730063555584,3.96636,3.48935,-0.51103,-0.41540,0.56750,0.58933,0.39759,
1403636730563555584,3.81076,3.23948,-0.53276,-0.40861,0.57264,0.59614,0.38695,
1403636731163555328,3.64548,3.08377,-0.43214,-0.43187,0.58149,0.57798,0.37589,
1403636732463555584,3.63264,2.91562,-0.61358,-0.42087,0.55715,0.58747,0.40907,
1403636733463555584,3.48351,2.49358,-0.51048,-0.42112,0.55821,0.59306,0.39917,
1403636734363555328,3.21339,2.03098,-0.39966,-0.42320,0.55858,0.59327,0.39613,
1403636734863555328,3.05680,1.77850,-0.33592,-0.41878,0.56039,0.60151,0.38571,
1403636736163555328,2.71315,1.36953,-0.16336,-0.42705,0.55834,0.59598,0.38820,
1403636736363555328,2.67197,1.32923,-0.10450,-0.43743,0.54185,0.60823,0.38092,
1403636736863555328,2.56062,1.23227,-0.05119,-0.43786,0.51893,0.62509,0.38503,
1403636737263555584,2.42201,1.12361,-0.07840,-0.45069,0.52139,0.62427,0.36785,
1403636737663555328,2.28150,1.01479,-0.08035,-0.44831,0.52528,0.63179,0.35205,
1403636738663555328,2.12753,0.92541,0.17214,-0.43472,0.55052,0.61448,0.36106,
1403636738863555328,2.12096,0.95195,0.16485,-0.42780,0.57653,0.58316,0.38015,
1403636738963555584,2.12803,0.96632,0.14714,-0.42241,0.59263,0.56450,0.38949,
1403636739063555584,2.13198,0.96682,0.12204,-0.41571,0.61039,0.54408,0.39824,
1403636739263555584,2.17676,0.99050,0.06171,-0.38321,0.63738,0.51267,0.42903,
1403636739363555328,2.20121,1.00171,0.02970,-0.36317,0.64811,0.49865,0.44654,
1403636739563555584,2.26050,1.01075,-0.00838,-0.33551,0.67136,0.46679,0.46778,
1403636739763555584,2.29526,1.01890,-0.01972,-0.32521,0.68666,0.44483,0.47420,
1403636741163555328,2.55015,1.01418,-0.40087,-0.31597,0.67111,0.45551,0.49222,
1403636741463555584,2.57204,0.97524,-0.54521,-0.31640,0.69368,0.43493,0.47910,
1403636742163555328,2.63900,0.93353,-0.75692,-0.29989,0.69388,0.45253,0.47309,
1403636742763555584,2.69589,0.99326,-0.82472,-0.32590,0.68085,0.44833,0.47878,
1403636743163555328,2.73699,1.02802,-0.94833,-0.31241,0.69967,0.44588,0.46265,
1403636743363555328,2.76912,1.05271,-1.00470,-0.29847,0.71464,0.44580,0.44884,
1403636743763555584,2.87184,1.17735,-1.08780,-0.30476,0.69926,0.43614,0.47742,
1403636744063555584,2.95989,1.29275,-1.20808,-0.30219,0.69926,0.41919,0.49396,
1403636744363555328,3.03560,1.40063,-1.37732,-0.30073,0.70796,0.39830,0.49971,
1403636744963555584,3.19179,1.53945,-1.81934,-0.29974,0.70707,0.40002,0.50019,
1403636745263555584,3.26822,1.56687,-1.96824,-0.29809,0.71036,0.41343,0.48539,
1403636745863555328,3.40314,1.63333,-2.04883,-0.29429,0.70075,0.40693,0.50671,
1403636746163555328,3.42748,1.65739,-1.99288,-0.27314,0.70465,0.40194,0.51702,
1403636746363555328,3.41672,1.67557,-1.93447,-0.28023,0.69615,0.39185,0.53226,
1403636746663555328,3.35222,1.69324,-1.90216,-0.27981,0.71887,0.39775,0.49672,
1403636746863555328,3.30457,1.70929,-1.90672,-0.29001,0.73275,0.39730,0.47023,
1403636747263555584,3.27067,1.77997,-1.86925,-0.28683,0.71170,0.40487,0.49728,
1403636747963555584,3.19667,1.95811,-1.67673,-0.29057,0.72129,0.38471,0.49731,
1403636748763555584,3.15871,2.16464,-1.44881,-0.28883,0.72221,0.37919,0.50119,
1403636749463555584,3.21643,2.25478,-1.29912,-0.27667,0.72268,0.37171,0.51285,
1403636749963555584,3.26459,2.26213,-1.18445,-0.28266,0.70779,0.37628,0.52682,
1403636750563555584,3.21378,2.21164,-1.07234,-0.28832,0.70937,0.39364,0.50865,
1403636751563555584,3.00987,2.09738,-0.53760,-0.29827,0.71827,0.39191,0.49146,
1403636752263555584,2.97244,2.07295,-0.27596,-0.30140,0.70344,0.42179,0.48624,
1403636752463555584,2.98393,2.08116,-0.19780,-0.32295,0.68437,0.43798,0.48531,
1403636752663555328,2.99216,2.08477,-0.11526,-0.33901,0.66624,0.47024,0.46912,
1403636752863555328,2.99380,2.08475,-0.06090,-0.35711,0.64385,0.50368,0.45192,
1403636753063555584,3.00534,2.08621,-0.03595,-0.37161,0.61312,0.54092,0.43976,
1403636753163555328,3.00200,2.08511,-0.03308,-0.38069,0.59776,0.55859,0.43097,
1403636753363555328,2.97917,2.08386,-0.04534,-0.39790,0.56408,0.59207,0.41586,
1403636753563555584,2.94903,2.07983,-0.05033,-0.41929,0.55047,0.60284,0.39719,
1403636754463555584,2.71580,2.01214,0.00148,-0.42840,0.54488,0.59398,0.40837,
1403636754663555328,2.65012,1.95654,0.03255,-0.43168,0.53368,0.60800,0.39896,
1403636754863555328,2.55896,1.90259,0.03858,-0.44495,0.51519,0.62468,0.38258,
1403636755063555584,2.46355,1.82831,0.03431,-0.45262,0.50196,0.63547,0.37330,
1403636755363555328,2.32768,1.70299,0.03033,-0.44869,0.50223,0.64654,0.35837,
1403636755963555584,2.01138,1.45686,0.07904,-0.45069,0.50549,0.64084,0.36150,
1403636756463555584,1.70716,1.26107,0.11731,-0.45612,0.50096,0.63863,0.36488,
1403636756863555328,1.46468,1.08082,0.11822,-0.46127,0.49793,0.63808,0.36352,
1403636757363555328,1.17540,0.79370,0.15586,-0.46012,0.49721,0.64081,0.36115,
1403636757663555328,1.00213,0.59711,0.15270,-0.44655,0.49400,0.65983,0.34812,
1403636757863555328,0.87219,0.47984,0.18291,-0.44204,0.49266,0.67280,0.33049,
1403636758063555584,0.72875,0.38099,0.24703,-0.45905,0.48317,0.66705,0.33297,
1403636758263555584,0.58723,0.29875,0.29347,-0.47468,0.47636,0.65828,0.33826,
1403636758563555584,0.39502,0.16906,0.30250,-0.46225,0.49935,0.66656,0.30442,
1403636758963555584,0.18716,0.08297,0.27458,-0.47648,0.48515,0.65524,0.32902,
1403636759263555584,0.09743,0.06678,0.22218,0.50040,-0.49900,-0.63798,-0.30591,
1403636759863555328,0.07709,0.05187,0.09289,-0.47943,0.47416,0.65687,0.33741,
1403636760063555584,0.07521,0.03063,0.07548,-0.46733,0.48228,0.66504,0.32669,
1403636760763555584,0.07964,-0.03741,-0.02154,-0.46095,0.47574,0.67016,0.33479,
1403636761163555328,0.05216,-0.09400,-0.07493,-0.45496,0.48077,0.67578,0.32435,
1403636761563555584,-0.00475,-0.11222,-0.09325,-0.46813,0.47452,0.66685,0.33316,
1403636762163555328,-0.07035,-0.10760,-0.06078,-0.46233,0.46535,0.66796,0.35148,
1403636762363555328,-0.08991,-0.10887,-0.05483,-0.44598,0.47784,0.67857,0.33514,
1403636762563555584,-0.13212,-0.10434,-0.07737,-0.47029,0.49562,0.66083,0.31064,
1403636762763555584,-0.16574,-0.08204,-0.12877,-0.48848,0.49286,0.64812,0.31370,
1403636762863555328,-0.17073,-0.07286,-0.14802,0.50902,-0.47912,-0.63372,-0.33127,
1403636762963555584,-0.15675,-0.08316,-0.15225,-0.48548,0.48099,0.64699,0.33817,
1403636763063555584,-0.13730,-0.09453,-0.16227,-0.47784,0.50569,0.63523,0.33531,
1403636763163555328,-0.12801,-0.10306,-0.16323,-0.49096,0.50889,0.61344,0.35168,
