1403638526327829504,0.21817,0.00083,0.09895,-0.41835,0.56482,0.59558,0.38891,
1403638526527829504,0.30795,-0.01170,0.12906,-0.42305,0.57554,0.56977,0.40639,
1403638526727829504,0.41962,-0.04104,0.14296,-0.42214,0.58416,0.54729,0.42547,
1403638527027829504,0.60856,-0.09277,0.15063,-0.40100,0.60087,0.53699,0.43565,
1403638527227829504,0.71120,-0.12785,0.16529,-0.38023,0.62611,0.51647,0.44348,
1403638527427829504,0.75455,-0.14067,0.18143,-0.36117,0.63428,0.49794,0.46829,
1403638527927829504,0.56668,-0.01930,0.17518,-0.38790,0.61726,0.53070,0.43229,
1403638528127829504,0.45231,0.01690,0.17900,-0.40078,0.60633,0.54010,0.42430,
1403638528327829504,0.35783,0.05912,0.16913,-0.41511,0.59353,0.55617,0.40754,
1403638529327829504,0.20249,0.11290,0.19588,-0.38667,0.60709,0.55441,0.41780,
1403638529527829504,0.16973,0.05142,0.15362,-0.36849,0.61614,0.57184,0.39696,
1403638530727829504,0.14333,0.10203,0.00476,-0.35850,0.63435,0.55795,0.39721,
1403638539027829504,0.14808,0.10527,-0.05794,-0.37561,0.61888,0.54780,0.41930,
1403638540527829504,0.16870,0.37907,0.18604,-0.38551,0.60348,0.56058,0.41586,
1403638540727829504,0.16450,0.46288,0.19474,-0.39802,0.57813,0.58472,0.40675,
1403638540827829504,0.15609,0.50436,0.19515,-0.40475,0.55890,0.60278,0.40057,
1403638540927829504,0.14446,0.55286,0.20094,-0.41228,0.53834,0.62178,0.39193,
1403638541027829504,0.12923,0.60468,0.20329,-0.42231,0.52100,0.63651,0.38087,
1403638541227829504,0.08987,0.70593,0.19919,-0.43545,0.49933,0.65349,0.36607,
1403638541727829504,-0.09748,0.97200,0.25541,-0.44642,0.48589,0.66000,0.35919,
1403638541927829504,-0.20959,1.07184,0.32031,-0.46014,0.47190,0.67128,0.33905,
1403638542027829504,-0.27095,1.13007,0.34748,-0.46651,0.45983,0.68116,0.32701,
1403638542127829504,-0.33145,1.17816,0.36480,-0.47316,0.44424,0.69272,0.31451,
1403638542227829504,-0.39262,1.22029,0.37930,-0.48099,0.42669,0.70486,0.29959,
1403638542327829504,-0.45502,1.26260,0.38884,-0.48776,0.40631,0.71790,0.28568,
1403638542427829504,-0.51635,1.30252,0.39390,-0.49866,0.38350,0.72471,0.28118,
1403638542627829504,-0.64587,1.38247,0.39769,0.50842,-0.34381,-0.73338,-0.29232,
1403638542927829504,-0.86924,1.46040,0.44419,0.50807,-0.35307,-0.73943,-0.26543,
1403638543527829504,-1.35384,1.55047,0.55340,0.50621,-0.35911,-0.74267,-0.25147,
1403638543727829504,-1.51943,1.57377,0.56159,0.51136,-0.32653,-0.75904,-0.23612,
1403638543827829504,-1.59946,1.57961,0.57119,0.51621,-0.30320,-0.76831,-0.22650,
1403638543927829504,-1.68424,1.58626,0.58826,0.52266,-0.28180,-0.77609,-0.21234,
1403638544027829504,-1.77149,1.59262,0.61059,0.52830,-0.26692,-0.78157,-0.19697,
1403638544227829504,-1.95190,1.61010,0.65545,0.53582,-0.25266,-0.78654,-0.17440,
1403638544627829504,-2.33139,1.66949,0.69389,0.54438,-0.24481,-0.78403,-0.17034,
1403638545227829504,-2.87802,1.75868,0.74248,0.54366,-0.23933,-0.78729,-0.16535,
1403638545627829504,-3.24924,1.82102,0.69332,0.54928,-0.22521,-0.79003,-0.15302,
1403638545827829504,-3.43249,1.85074,0.69281,0.55255,-0.19037,-0.80088,-0.13053,
1403638545927829504,-3.51651,1.86191,0.70520,0.55357,-0.16706,-0.80745,-0.11694,
1403638546027829504,-3.60419,1.87316,0.72505,0.55403,-0.14381,-0.81319,-0.10534,
1403638546227829504,-3.78094,1.89700,0.75364,0.55580,-0.11362,-0.81880,-0.08798,
1403638546627829504,-4.14484,1.93683,0.74978,0.55703,-0.09843,-0.82176,-0.06888,
1403638547027829504,-4.55112,1.96655,0.80418,0.55714,-0.07316,-0.82473,-0.06376,
1403638547727829504,-5.29832,1.91068,0.76906,0.55636,-0.07888,-0.82519,-0.05756,
1403638548227829504,-5.88820,1.80636,0.69652,0.55641,-0.06087,-0.82725,-0.04857,
1403638548427829504,-6.14027,1.75137,0.71621,0.55580,-0.03246,-0.83024,-0.02692,
1403638548627829504,-6.39127,1.69442,0.74509,0.55760,-0.00993,-0.82999,-0.01006,
1403638548927829504,-6.77781,1.60788,0.77745,0.55797,0.00316,-0.82985,0.00103,
1403638549327829504,-7.29049,1.48599,0.90874,0.55884,0.00110,-0.82926,0.00491,
1403638549727829504,-7.83225,1.36858,1.05013,0.56369,-0.00398,-0.82596,0.00583,
1403638550127829504,-8.40384,1.27077,1.22288,0.55987,-0.00756,-0.82849,0.00956,
1403638550427829504,-8.85264,1.21403,1.41841,0.56085,-0.00614,-0.82783,0.01032,
1403638550727829504,-9.30619,1.17352,1.57960,0.56886,-0.01114,-0.82216,0.01824,
1403638550927829504,-9.59323,1.16560,1.66195,0.58305,-0.01176,-0.81216,0.01789,
1403638551227829504,-9.99544,1.17909,1.76512,0.59400,-0.01515,-0.80396,0.02407,
1403638551527829504,-10.34831,1.23415,1.88824,0.58281,-0.05022,-0.81095,0.01303,
1403638551727829504,-10.56094,1.30418,1.94505,0.58084,-0.09829,-0.80805,-0.00454,
1403638551827829504,-10.65413,1.35052,1.96193,0.58052,-0.12041,-0.80510,-0.01768,
1403638551927829504,-10.73944,1.40549,1.98044,0.58080,-0.13286,-0.80237,-0.03487,
1403638552127829504,-10.89086,1.53951,2.03841,0.58108,-0.14331,-0.79881,-0.06094,
1403638552527829504,-11.12274,1.85871,2.17957,0.58829,-0.15446,-0.79150,-0.05984,
1403638553027829504,-11.23997,2.33798,2.23787,0.58658,-0.13711,-0.79535,-0.06747,
1403638553327829504,-11.22319,2.63826,2.22985,0.60444,-0.12941,-0.78329,-0.06612,
1403638553627829504,-11.13867,2.93839,2.26871,0.60923,-0.11426,-0.78039,-0.08227,
1403638554027829504,-10.88300,3.28554,2.39927,0.59789,-0.11608,-0.78917,-0.07912,
1403638554327829504,-10.63013,3.50620,2.46607,0.57418,-0.11475,-0.80659,-0.08103,
1403638554927829504,-10.10909,3.89467,2.54292,0.57353,-0.12411,-0.80710,-0.06511,
1403638555227829504,-9.86262,4.09489,2.58542,0.57065,-0.14588,-0.80426,-0.07904,
1403638555427829504,-9.69916,4.23813,2.58817,0.56699,-0.15819,-0.80281,-0.09485,
1403638555727829504,-9.46532,4.45524,2.58233,0.56518,-0.16615,-0.80178,-0.10055,
1403638556127829504,-9.14130,4.72138,2.66952,0.55938,-0.16326,-0.80617,-0.10261,
1403638556427829504,-8.93068,4.93965,2.71339,0.54689,-0.16797,-0.81451,-0.09634,
1403638556827829504,-8.72316,5.25379,2.78509,0.55493,-0.17963,-0.80802,-0.08304,
1403638557127829504,-8.58395,5.54843,2.85206,0.56140,-0.17795,-0.80373,-0.08470,
1403638557427829504,-8.43605,5.87344,2.88271,0.56135,-0.17126,-0.80440,-0.09223,
1403638557627829504,-8.33912,6.10407,2.91437,0.56003,-0.16289,-0.80569,-0.10341,
1403638557927829504,-8.20436,6.44054,2.97098,0.55728,-0.16028,-0.80742,-0.10873,
1403638558227829504,-8.09909,6.76442,2.97889,0.53841,-0.16786,-0.81978,-0.09947,
1403638558527829504,-8.04000,7.09465,3.03230,0.52164,-0.16784,-0.83024,-0.10210,
1403638558827829504,-8.04947,7.44052,3.14011,0.53621,-0.18068,-0.81984,-0.08767,
1403638559027829504,-8.08142,7.68713,3.18583,0.54611,-0.17550,-0.81353,-0.09559,
1403638559227829504,-8.12203,7.93559,3.20080,0.55284,-0.16972,-0.80939,-0.10226,
1403638559527829504,-8.19280,8.30107,3.18310,0.55342,-0.15980,-0.80955,-0.11324,
1403638559927829504,-8.31789,8.75144,3.13374,0.55573,-0.16020,-0.80797,-0.11267,
1403638560127829504,-8.38815,8.95805,3.10484,0.55395,-0.18870,-0.80101,-0.12616,
1403638560227829504,-8.42224,9.05888,3.07851,0.55165,-0.21011,-0.79487,-0.14045,
1403638560327829504,-8.45248,9.16069,3.05131,0.55172,-0.23270,-0.78531,-0.15729,
1403638560427829504,-8.48342,9.25844,3.02055,0.55243,-0.25592,-0.77380,-0.17482,
1403638560527829504,-8.51226,9.35281,2.98553,0.55188,-0.27993,-0.76168,-0.19214,
1403638560627829504,-8.54289,9.44087,2.94498,0.54975,-0.30724,-0.74937,-0.20451,
1403638560727829504,-8.55539,9.53127,2.90679,0.54734,-0.33414,-0.73733,-0.21242,
1403638560827829504,-8.56390,9.61750,2.87615,0.54383,-0.35580,-0.72641,-0.22357,
1403638560927829504,-8.56888,9.70325,2.85123,0.54100,-0.37596,-0.71458,-0.23524,
1403638561027829504,-8.56414,9.78510,2.83576,0.53857,-0.39183,-0.70236,-0.25121,
1403638561127829504,-8.54937,9.86369,2.82741,0.53590,-0.40730,-0.69043,-0.26500,
1403638561327829504,-8.50053,10.00638,2.82867,0.53173,-0.42745,-0.67419,-0.28286,
1403638561527829504,-8.42493,10.13041,2.82602,0.50793,-0.43119,-0.68533,-0.29395,
1403638561927829504,-8.25104,10.35099,2.75787,-0.49627,0.42819,0.69242,0.30152,
1403638562127829504,-8.15472,10.44578,2.71238,-0.48963,0.44288,0.68271,0.31308,
1403638562327829504,-8.05687,10.52723,2.69154,-0.48338,0.45750,0.67178,0.32518,
1403638562527829504,-7.95782,10.58861,2.69168,-0.47488,0.48325,0.65241,0.33958,
1403638562627829504,-7.90505,10.61410,2.70164,-0.47055,0.50080,0.63785,0.34774,
1403638562727829504,-7.85073,10.63804,2.71342,-0.46510,0.52040,0.62185,0.35520,
1403638562827829504,-7.79407,10.65808,2.72354,-0.45814,0.53983,0.60485,0.36449,
1403638562927829504,-7.73455,10.67255,2.72778,-0.44889,0.55787,0.58876,0.37503,
1403638563027829504,-7.67188,10.68424,2.72695,-0.44103,0.57418,0.57263,0.38457,
1403638563127829504,-7.60491,10.69327,2.71948,-0.43561,0.59148,0.55570,0.38935,
1403638563227829504,-7.53217,10.69802,2.70781,-0.42775,0.60143,0.54314,0.40039,
1403638563427829504,-7.37852,10.70065,2.67274,-0.42976,0.60555,0.52039,0.42168,
1403638563727829504,-7.11827,10.64984,2.61593,-0.42323,0.60953,0.52109,0.42168,
1403638564327829504,-6.47280,10.37940,2.61652,-0.43467,0.59536,0.53310,0.41523,
1403638564727829504,-5.95399,10.07200,2.65941,-0.44052,0.59500,0.53570,0.40615,
1403638565027829504,-5.51086,9.78167,2.62390,-0.44510,0.59919,0.53066,0.40157,
1403638565327829504,-5.02016,9.45766,2.46441,-0.44170,0.60049,0.53275,0.40062,
1403638565527829504,-4.66790,9.22193,2.34686,-0.43769,0.59764,0.53392,0.40766,
1403638565727829504,-4.30143,8.97536,2.25782,-0.42429,0.59042,0.54052,0.42334,
1403638565927829504,-3.94304,8.70822,2.19604,-0.41059,0.59112,0.54740,0.42703,
1403638566127829504,-3.59912,8.43084,2.13086,-0.40831,0.59329,0.54723,0.42642,
1403638566427829504,-3.11369,8.01400,1.97839,-0.40820,0.59287,0.54863,0.42530,
1403638566627829504,-2.80612,7.73199,1.84185,-0.40441,0.59656,0.55468,0.41580,
1403638566727829504,-2.65821,7.59494,1.75965,-0.39284,0.60464,0.56394,0.40256,
1403638566827829504,-2.51247,7.46289,1.67576,-0.38244,0.60940,0.57283,0.39273,
1403638567027829504,-2.22575,7.22143,1.50384,-0.37710,0.61094,0.57978,0.38523,
1403638567227829504,-1.94977,7.01796,1.33126,-0.39981,0.59141,0.56585,0.41256,
1403638567527829504,-1.56564,6.72042,1.05190,-0.39805,0.58918,0.56325,0.42091,
1403638567727829504,-1.33216,6.52772,0.89854,-0.38730,0.59556,0.56697,0.41696,
1403638567927829504,-1.11673,6.35089,0.77880,-0.38165,0.60173,0.56868,0.41092,
1403638568227829504,-0.83223,6.11756,0.65324,-0.37791,0.59963,0.56954,0.41623,
1403638568527829504,-0.58952,5.91114,0.55660,-0.37422,0.60119,0.57096,0.41536,
1403638568927829504,-0.32892,5.68984,0.42118,-0.37030,0.60204,0.57402,0.41344,
1403638569527829504,-0.07701,5.48386,0.34042,-0.36720,0.59923,0.57539,0.41834,
1403638570527829504,-0.07630,5.44489,0.25826,-0.39469,0.62515,0.53802,0.40489,
1403638570727829504,-0.06423,5.45857,0.19917,-0.39874,0.65723,0.49016,0.41085,
1403638570827829504,-0.04087,5.45791,0.16604,-0.39960,0.66770,0.46243,0.42504,
1403638570927829504,-0.00880,5.45220,0.13095,-0.39408,0.67693,0.43967,0.43949,
1403638571027829504,0.03447,5.43623,0.09386,-0.38439,0.68703,0.42034,0.45116,
1403638571127829504,0.08582,5.41275,0.05107,-0.36377,0.69912,0.41000,0.45914,
1403638571227829504,0.14421,5.37889,0.01415,-0.34192,0.70705,0.40546,0.46774,
1403638571327829504,0.20963,5.34105,-0.01390,-0.32497,0.71088,0.40220,0.47675,
1403638571527829504,0.34819,5.25676,-0.04028,-0.31579,0.71382,0.39203,0.48687,
1403638571727829504,0.49724,5.15406,-0.06519,-0.29979,0.72598,0.37811,0.49001,
1403638571827829504,0.57714,5.09695,-0.08393,-0.28892,0.73584,0.36638,0.49075,
1403638571927829504,0.65964,5.03644,-0.10440,-0.28040,0.74608,0.34932,0.49266,
1403638572027829504,0.74603,4.97313,-0.11864,-0.27147,0.75529,0.33091,0.49633,
1403638572127829504,0.83682,4.90682,-0.12326,-0.26143,0.76280,0.31297,0.50184,
1403638572227829504,0.93114,4.83627,-0.12044,-0.24500,0.76938,0.29859,0.50880,
1403638572327829504,1.02834,4.76313,-0.11720,-0.22837,0.77892,0.28299,0.51093,
1403638572427829504,1.12991,4.68912,-0.11793,-0.21174,0.78729,0.26783,0.51343,
1403638572527829504,1.23495,4.61552,-0.12198,-0.19720,0.79229,0.25788,0.51660,
1403638572727829504,1.45129,4.47475,-0.12786,-0.17985,0.79620,0.24886,0.52133,
1403638572927829504,1.68143,4.34529,-0.10391,-0.16898,0.79793,0.25268,0.52048,
1403638573227829504,2.04575,4.18548,-0.07154,-0.16830,0.79862,0.25987,0.51609,
1403638573527829504,2.43429,4.07351,-0.04328,-0.16442,0.79883,0.26240,0.51573,
1403638573727829504,2.70947,4.02840,0.00908,-0.15817,0.79985,0.26006,0.51729,
1403638573827829504,2.85065,4.01340,0.03993,-0.15181,0.79774,0.25218,0.52627,
1403638573927829504,2.99049,4.00324,0.06732,-0.14447,0.79511,0.23717,0.53914,
1403638574027829504,3.12801,3.99825,0.08799,-0.14400,0.79517,0.21132,0.54984,
1403638574127829504,3.26342,3.99317,0.10303,-0.14510,0.79624,0.17984,0.55911,
1403638574227829504,3.39679,3.98638,0.11207,-0.14199,0.79811,0.14822,0.56647,
1403638574327829504,3.52851,3.97601,0.11646,-0.13008,0.80212,0.12229,0.56984,
1403638574427829504,3.65704,3.96026,0.11815,-0.11182,0.80680,0.10106,0.57128,
1403638574527829504,3.78331,3.93839,0.11753,-0.09554,0.81096,0.08126,0.57151,
1403638574627829504,3.90507,3.91234,0.12310,-0.08313,0.81171,0.06712,0.57420,
1403638574827829504,4.13436,3.84911,0.15533,-0.05442,0.81602,0.06170,0.57214,
1403638575127829504,4.46372,3.75327,0.18954,-0.05889,0.82569,0.05303,0.55854,
1403638575527829504,4.90640,3.59874,0.17091,-0.06709,0.83145,0.05900,0.54837,
1403638575727829504,5.15186,3.51003,0.16702,-0.05581,0.83424,0.07464,0.54347,
1403638575927829504,5.41125,3.42621,0.19448,-0.05103,0.83709,0.08265,0.53838,
1403638576127829504,5.68901,3.35490,0.25643,-0.05151,0.83581,0.08402,0.54010,
1403638576327829504,5.98355,3.29671,0.32324,-0.04638,0.83247,0.08752,0.54515,
1403638576527829504,6.29078,3.25633,0.36543,-0.03348,0.83247,0.09580,0.54470,
1403638576727829504,6.60726,3.24471,0.38759,-0.02634,0.83054,0.10063,0.54717,
1403638576927829504,6.93027,3.26486,0.39376,-0.03335,0.82146,0.09592,0.56115,
1403638577227829504,7.39861,3.33795,0.39962,-0.05009,0.81971,0.08337,0.56446,
1403638577527829504,7.84889,3.44175,0.46095,-0.03528,0.81924,0.09463,0.56448,
1403638577927829504,8.42341,3.63663,0.49621,-0.04349,0.82109,0.09125,0.56177,
1403638578227829504,8.84180,3.82382,0.52610,-0.05900,0.81966,0.08371,0.56362,
1403638578527829504,9.25457,4.01323,0.56891,-0.06748,0.81997,0.07708,0.56317,
1403638578927829504,9.77503,4.24541,0.56344,-0.05066,0.81758,0.08751,0.56686,
1403638579327829504,10.25556,4.49588,0.60309,-0.05390,0.81616,0.08859,0.56844,
1403638579627829504,10.58963,4.69159,0.63743,-0.07804,0.80861,0.08175,0.57739,
1403638579827829504,10.78433,4.80817,0.63528,-0.09157,0.79777,0.12219,0.58330,
1403638579927829504,10.86804,4.86599,0.62287,-0.10475,0.79598,0.15317,0.57618,
1403638580027829504,10.94802,4.92541,0.60829,-0.12576,0.78720,0.18649,0.57421,
1403638580127829504,11.02579,4.98743,0.59199,-0.15300,0.77057,0.22139,0.57775,
1403638580227829504,11.09786,5.04709,0.57047,-0.18207,0.75567,0.25846,0.57359,
1403638580327829504,11.16185,5.10239,0.54401,-0.20995,0.74559,0.29322,0.56039,
1403638580427829504,11.21869,5.15127,0.51433,-0.23562,0.74064,0.31746,0.54328,
1403638580527829504,11.27674,5.19787,0.48272,-0.25341,0.73647,0.33377,0.53103,
1403638580727829504,11.38080,5.27733,0.42100,-0.27289,0.72909,0.36809,0.50840,
1403638581027829504,11.52842,5.37489,0.39217,-0.28044,0.72238,0.39374,0.49445,
1403638581527829504,11.73649,5.51529,0.46599,-0.27042,0.72153,0.39058,0.50371,
1403638581827829504,11.82680,5.60910,0.53555,-0.26833,0.71741,0.38259,0.51667,
1403638582627829504,11.96299,5.79465,0.72575,-0.26599,0.71414,0.38157,0.52313,
1403638583927829504,11.76402,6.12105,1.33182,-0.25503,0.72567,0.38532,0.50980,
1403638584227829504,11.65952,6.24088,1.38243,-0.26486,0.70802,0.37854,0.53411,
1403638584827829504,11.31107,6.31327,1.38632,-0.26460,0.71399,0.38034,0.52493,
1403638585327829504,10.92459,6.29299,1.39871,-0.26410,0.72209,0.37976,0.51441,
1403638585727829504,10.60561,6.28031,1.37930,-0.25949,0.72708,0.38349,0.50690,
1403638586227829504,10.22848,6.31691,1.49866,-0.26184,0.72838,0.37930,0.50698,
1403638586827829504,9.74852,6.37399,1.51171,-0.26254,0.72000,0.37725,0.51996,
1403638587227829504,9.38200,6.40394,1.43670,-0.26249,0.72106,0.37840,0.51768,
1403638587627829504,8.99242,6.42506,1.42932,-0.26300,0.72514,0.37694,0.51276,
1403638588127829504,8.53173,6.44368,1.33085,-0.26224,0.72369,0.37628,0.51567,
1403638588627829504,8.03450,6.45536,1.26219,-0.26029,0.72192,0.37879,0.51729,
1403638589027829504,7.61412,6.45181,1.28761,-0.26585,0.72353,0.37380,0.51585,
1403638589527829504,7.07501,6.42956,1.22173,-0.26543,0.72308,0.37395,0.51659,
1403638590027829504,6.53032,6.37662,1.23306,-0.26273,0.72669,0.37381,0.51299,
1403638590527829504,6.01903,6.31502,1.15429,-0.26268,0.72743,0.37223,0.51312,
1403638590927829504,5.64578,6.26553,1.14070,-0.26097,0.73229,0.37404,0.50571,
1403638591327829504,5.28701,6.22117,1.18051,-0.25077,0.74651,0.37967,0.48548,
1403638591627829504,5.08028,6.23751,1.15858,-0.24722,0.75618,0.38117,0.47094,
1403638592127829504,4.96320,6.40665,1.13927,-0.25728,0.74622,0.37696,0.48463,
1403638592327829504,4.99871,6.51316,1.19322,-0.28048,0.73250,0.37777,0.49201,
1403638592527829504,5.03634,6.60622,1.26920,-0.30299,0.71732,0.39995,0.48342,
1403638592727829504,5.05556,6.68325,1.36842,-0.30515,0.71161,0.42644,0.46759,
1403638593427829504,5.18709,7.02009,1.64034,-0.30007,0.69387,0.44519,0.47990,
1403638593727829504,5.24923,7.19320,1.73470,-0.29922,0.68679,0.44160,0.49373,
1403638593927829504,5.27014,7.30538,1.78657,-0.32037,0.67500,0.43155,0.50547,
1403638594327829504,5.26835,7.46278,1.91918,-0.32184,0.67383,0.45166,0.48823,
1403638594827829504,5.19794,7.57503,2.11943,-0.32914,0.67310,0.45195,0.48409,
1403638596227829504,4.84084,7.60554,2.18121,-0.29417,0.66539,0.47196,0.49797,
1403638596727829504,4.49803,7.61483,2.22144,-0.26288,0.64532,0.49473,0.51932,
1403638597027829504,4.11218,7.67217,2.32995,-0.25863,0.63967,0.49705,0.52619,
1403638597227829504,3.77838,7.73084,2.38431,-0.25951,0.63718,0.49445,0.53121,
1403638597427829504,3.38287,7.80180,2.41541,-0.27152,0.64108,0.48488,0.52933,
1403638597627829504,2.93637,7.88209,2.42361,-0.29599,0.64745,0.46759,0.52399,
1403638597827829504,2.46261,7.95058,2.41059,-0.29122,0.64249,0.47495,0.52613,
1403638598027829504,1.95260,8.01082,2.38782,-0.28853,0.63251,0.49000,0.52591,
1403638598127829504,1.68630,8.03727,2.38515,-0.30154,0.63586,0.48723,0.51708,
1403638598227829504,1.40732,8.06278,2.38819,-0.31761,0.64351,0.48086,0.50377,
1403638598327829504,1.12200,8.08398,2.39089,-0.32658,0.65044,0.47728,0.49242,
1403638598527829504,0.55276,8.12040,2.38020,-0.33183,0.65538,0.47734,0.48219,
1403638598627829504,0.27210,8.13820,2.36345,-0.33333,0.65411,0.48321,0.47701,
1403638598727829504,-0.00574,8.15510,2.34475,-0.33800,0.64818,0.49180,0.47303,
1403638598827829504,-0.28173,8.16981,2.33058,-0.34563,0.64011,0.50161,0.46818,
1403638598927829504,-0.55502,8.18275,2.32330,-0.35226,0.63095,0.51439,0.46175,
1403638599027829504,-0.82651,8.19248,2.31920,-0.36195,0.62112,0.52674,0.45359,
1403638599127829504,-1.09678,8.20128,2.32258,-0.37047,0.60912,0.54042,0.44684,
1403638599227829504,-1.36659,8.20639,2.32987,-0.37855,0.59715,0.55460,0.43878,
1403638599327829504,-1.63505,8.20962,2.34360,-0.38685,0.58581,0.56885,0.42846,
1403638599427829504,-1.90242,8.20883,2.36348,-0.39092,0.57618,0.58250,0.41939,
1403638599527829504,-2.16853,8.20756,2.38474,-0.39359,0.56986,0.59187,0.41235,
1403638599627829504,-2.43276,8.20581,2.39947,-0.39595,0.56728,0.59679,0.40653,
1403638599827829504,-2.95305,8.20430,2.40660,-0.39627,0.56691,0.59978,0.40230,
1403638600027829504,-3.46339,8.21046,2.39131,-0.40136,0.57459,0.59297,0.39641,
1403638600227829504,-3.95773,8.23208,2.35900,-0.41015,0.59300,0.58152,0.37678,
1403638600427829504,-4.41876,8.26425,2.31823,-0.41771,0.60773,0.57087,0.36095,
1403638600727829504,-5.01298,8.35004,2.30642,-0.41364,0.61455,0.56996,0.35549,
1403638600927829504,-5.34602,8.43496,2.32597,-0.39344,0.60860,0.58588,0.36271,
1403638601227829504,-5.77127,8.62018,2.33641,-0.37704,0.58918,0.60065,0.38721,
1403638601427829504,-6.05888,8.77377,2.33141,-0.39250,0.57462,0.59849,0.39694,
1403638601527829504,-6.20268,8.85593,2.33663,-0.40496,0.56495,0.60218,0.39272,
1403638601627829504,-6.33493,8.93929,2.34971,-0.41547,0.55056,0.61185,0.38719,
1403638601727829504,-6.46488,9.02419,2.36854,-0.42485,0.53232,0.62644,0.37909,
1403638601827829504,-6.60410,9.10272,2.39172,-0.43553,0.50948,0.64298,0.37056,
1403638601927829504,-6.74938,9.17384,2.41803,-0.44565,0.48645,0.65932,0.36063,
1403638602027829504,-6.89243,9.24619,2.44310,-0.45295,0.47029,0.67195,0.34950,
1403638602127829504,-7.03366,9.31927,2.46416,-0.45823,0.45711,0.68072,0.34308,
1403638602327829504,-7.32964,9.45196,2.48736,-0.47726,0.42321,0.69343,0.33508,
1403638602427829504,-7.48129,9.50781,2.50407,0.50866,-0.40654,-0.68774,-0.32094,
1403638602527829504,-7.62977,9.55556,2.53035,0.54761,-0.38622,-0.67472,-0.30937,
1403638602627829504,-7.76683,9.58994,2.56348,0.57482,-0.36851,-0.66835,-0.29511,
1403638602727829504,-7.88621,9.60816,2.60095,0.58301,-0.35203,-0.67582,-0.28186,
1403638602827829504,-7.98923,9.60936,2.64370,0.58409,-0.33430,-0.68801,-0.27151,
1403638602927829504,-8.07434,9.59483,2.68919,0.58624,-0.32026,-0.69953,-0.25380,
1403638603027829504,-8.14695,9.56930,2.73557,0.59197,-0.30958,-0.70808,-0.22880,
1403638603127829504,-8.19891,9.53556,2.77735,0.60041,-0.29410,-0.71234,-0.21351,
1403638603327829504,-8.28723,9.45132,2.82407,0.57685,-0.27886,-0.74328,-0.19241,
1403638603427829504,-8.31206,9.40286,2.83514,0.55947,-0.27871,-0.75874,-0.18341,
1403638603827829504,-8.36973,9.21181,2.84162,0.56685,-0.25273,-0.75805,-0.20040,
1403638604427829504,-8.33759,8.73076,2.77167,0.56404,-0.25165,-0.75985,-0.20289,
1403638604627829504,-8.29663,8.50903,2.78796,0.55125,-0.25691,-0.76930,-0.19570,
1403638604927829504,-8.22804,8.17196,2.78789,0.54631,-0.26621,-0.77290,-0.18252,
1403638605127829504,-8.18125,7.95198,2.80811,0.52903,-0.27240,-0.78470,-0.17368,
1403638605527829504,-8.13367,7.56277,2.86235,0.53098,-0.24960,-0.78341,-0.20503,
1403638605927829504,-8.14875,7.14597,2.88855,0.53157,-0.23547,-0.78218,-0.22401,
1403638606327829504,-8.25190,6.62021,2.93446,0.52345,-0.23648,-0.78611,-0.22828,
1403638606527829504,-8.33308,6.31238,2.91467,0.51557,-0.26008,-0.79195,-0.19842,
1403638606727829504,-8.43690,6.01212,2.87376,0.50843,-0.26169,-0.80089,-0.17776,
1403638606827829504,-8.49681,5.86815,2.84816,0.50735,-0.25189,-0.80695,-0.16727,
1403638606927829504,-8.56139,5.73397,2.82191,0.50888,-0.23733,-0.81284,-0.15498,
1403638607027829504,-8.64643,5.61007,2.79064,0.51296,-0.22083,-0.81759,-0.14021,
1403638607127829504,-8.73048,5.47920,2.78880,0.52001,-0.20870,-0.81900,-0.12358,
1403638607227829504,-8.82485,5.36240,2.78700,0.53376,-0.19546,-0.81440,-0.11685,
1403638607327829504,-8.91933,5.26204,2.77768,0.54825,-0.18580,-0.80752,-0.11314,
1403638607527829504,-9.11412,5.06646,2.73973,0.55845,-0.17972,-0.80310,-0.10419,
1403638607827829504,-9.37546,4.80057,2.64315,0.56087,-0.17672,-0.80181,-0.10626,
1403638608227829504,-9.71149,4.54232,2.44802,0.56629,-0.18132,-0.79614,-0.11220,
1403638608727829504,-10.03566,4.26360,2.12396,0.58156,-0.17839,-0.78456,-0.12008,
1403638609027829504,-10.15893,4.09807,1.95736,0.56885,-0.18355,-0.79389,-0.11166,
1403638609527829504,-10.30304,3.86532,1.73772,0.56922,-0.18724,-0.79320,-0.10849,
1403638610427829504,-10.33704,3.62131,1.27926,0.58180,-0.18438,-0.78387,-0.11428,
1403638610927829504,-10.16798,3.52085,1.01780,0.58016,-0.18328,-0.78576,-0.11141,
1403638611527829504,-9.79731,3.41034,0.77277,0.57843,-0.16396,-0.78729,-0.13682,
1403638611827829504,-9.55826,3.32744,0.69684,0.57052,-0.17538,-0.79263,-0.12447,
1403638612227829504,-9.23006,3.20569,0.57215,0.56626,-0.18725,-0.79485,-0.11181,
1403638612727829504,-8.80704,3.09784,0.46565,0.56832,-0.18047,-0.79194,-0.13141,
1403638613327829504,-8.28810,2.93099,0.34093,0.56663,-0.18821,-0.79139,-0.13117,
1403638613927829504,-7.76034,2.71503,0.24681,0.58065,-0.21448,-0.77202,-0.14435,
1403638614127829504,-7.55777,2.63711,0.17213,0.56976,-0.24330,-0.76703,-0.16684,
1403638614227829504,-7.44638,2.59285,0.13553,0.56213,-0.26010,-0.76454,-0.17842,
1403638614427829504,-7.22923,2.50633,0.08299,0.55287,-0.28496,-0.75944,-0.19072,
1403638614727829504,-6.90186,2.38134,0.07093,0.54682,-0.31969,-0.74823,-0.19733,
1403638614927829504,-6.67463,2.31344,0.10471,0.53238,-0.35902,-0.73866,-0.20508,
1403638615027829504,-6.56149,2.29362,0.13481,0.52431,-0.37985,-0.73052,-0.21716,
1403638615127829504,-6.44287,2.28151,0.16821,0.51559,-0.39927,-0.72014,-0.23698,
1403638615227829504,-6.32483,2.27391,0.20830,0.50822,-0.41545,-0.70687,-0.26353,
1403638615327829504,-6.20221,2.26536,0.24925,0.50005,-0.43456,-0.69216,-0.28642,
1403638615427829504,-6.07781,2.25631,0.28458,-0.49106,0.45519,0.67648,0.30664,
1403638615527829504,-5.95236,2.24520,0.31206,-0.48081,0.47593,0.66136,0.32390,
1403638615627829504,-5.82835,2.23349,0.33354,-0.47270,0.49255,0.64830,0.33714,
1403638615727829504,-5.70736,2.22121,0.35466,-0.46665,0.50437,0.63920,0.34535,
1403638615927829504,-5.46854,2.18870,0.41528,-0.45945,0.52265,0.62419,0.35513,
1403638616027829504,-5.34967,2.17215,0.44274,-0.45369,0.53223,0.61698,0.36087,
1403638616127829504,-5.22994,2.15377,0.46092,-0.44736,0.54187,0.60875,0.36833,
1403638616227829504,-5.10924,2.13287,0.46355,-0.44038,0.55457,0.59814,0.37516,
1403638616327829504,-4.98720,2.11118,0.44881,-0.43171,0.56874,0.58538,0.38405,
1403638616427829504,-4.86481,2.08978,0.42195,-0.42241,0.58265,0.57247,0.39290,
1403638616527829504,-4.74314,2.06836,0.38995,-0.41486,0.59427,0.56204,0.39855,
1403638616627829504,-4.62162,2.04723,0.35469,-0.40610,0.60409,0.55641,0.40071,
1403638616727829504,-4.50243,2.02779,0.31518,-0.39703,0.61604,0.55466,0.39397,
1403638616927829504,-4.26081,1.99817,0.23527,-0.38932,0.63149,0.55292,0.37938,
1403638617127829504,-4.00414,1.99856,0.18966,-0.38774,0.61835,0.55609,0.39756,
1403638617427829504,-3.61552,2.03127,0.17533,-0.37822,0.61475,0.56989,0.39276,
1403638617727829504,-3.24699,2.11562,0.22893,-0.37783,0.60727,0.57690,0.39453,
1403638618027829504,-2.91095,2.25733,0.33947,-0.38129,0.60270,0.57918,0.39487,
1403638618427829504,-2.50642,2.50163,0.43726,-0.38389,0.59928,0.58145,0.39421,
1403638618727829504,-2.23387,2.72660,0.48156,-0.38041,0.60064,0.57862,0.39964,
1403638618927829504,-2.06531,2.89139,0.52721,-0.37975,0.60452,0.56936,0.40764,
1403638619127829504,-1.90668,3.06740,0.56294,-0.36972,0.61809,0.54456,0.42980,
1403638619227829504,-1.82800,3.15797,0.57155,-0.36109,0.63089,0.52675,0.44060,
1403638619327829504,-1.74969,3.24928,0.57351,-0.34986,0.64587,0.50685,0.45117,
1403638619427829504,-1.67564,3.33787,0.56638,-0.34059,0.65911,0.48727,0.46058,
1403638619627829504,-1.54388,3.51378,0.53898,-0.33269,0.67805,0.45865,0.46819,
1403638620027829504,-1.28396,3.82853,0.45438,-0.33816,0.69389,0.43112,0.46723,
1403638620527829504,-0.91037,4.09195,0.42535,-0.33079,0.68813,0.43518,0.47716,
1403638621227829504,-0.36357,4.30290,0.36832,-0.32574,0.67938,0.45321,0.47638,
1403638621727829504,-0.01989,4.41507,0.33870,-0.33089,0.66850,0.45654,0.48496,
1403638622627829504,0.38572,4.37534,0.17364,-0.33351,0.66238,0.45305,0.49474,
1403638622827829504,0.43287,4.30632,0.20385,-0.34587,0.64839,0.44220,0.51422,
1403638623227829504,0.45577,4.07930,0.25557,-0.33952,0.66642,0.44528,0.49227,
1403638623727829504,0.43981,3.68522,0.25648,-0.33188,0.67209,0.44942,0.48597,
1403638624427829504,0.37481,3.04261,0.31740,-0.32866,0.68191,0.44392,0.47951,
1403638625127829504,0.29694,2.33108,0.29543,-0.34009,0.67218,0.45927,0.47072,
1403638625827829504,0.23132,1.59475,0.34221,-0.33628,0.67768,0.46793,0.45685,
1403638626527829504,0.23979,0.92040,0.30837,-0.32647,0.67205,0.47238,0.46758,
1403638626927829504,0.24296,0.59785,0.26134,-0.31928,0.68068,0.47826,0.45387,
1403638630027829504,0.15067,-0.01858,0.03921,-0.34076,0.67000,0.45614,0.47636,
1403638630327829504,0.14957,-0.02808,-0.06145,-0.32146,0.67269,0.46896,0.47353,
1403638630727829504,0.14344,-0.01423,-0.09574,-0.31159,0.68289,0.48974,0.44354,
